%!PS-Adobe-3.0 EPSF-3.0
%%Creator: 0.46
%%Pages: 1
%%Orientation: Portrait
%%BoundingBox: 14 14 298 298
%%HiResBoundingBox: 14 14.311011 297.465 297.77501
%%EndComments
%%Page: 1 1
0 312 translate
0.8 -0.8 scale
0 0 0 setrgbcolor
[] 0 setdash
1 setlinewidth
0 setlinejoin
0 setlinecap
gsave [1 0 0 1 0 0] concat
gsave [1.25 0 0 -1.25 0 389.76375] concat
gsave
0.26274511 0.37254903 0.70980394 setrgbcolor
newpath
160.566 209.67 moveto
160.566 213.374 lineto
150.89 213.374 lineto
150.89 209.661 lineto
107.978 209.636 lineto
104.234 205.887 lineto
104.234 178.132 lineto
111.727 178.132 lineto
111.727 202.142 lineto
113.929 202.142 123.666 202.147 135.924 202.158 curveto
136.518 198.077 136.681 190.107 130.354 184.733 curveto
135.211 179.023 lineto
143.687 186.231 144.11 196.298 143.466 202.162 curveto
150.476 202.166 157.926 202.171 165.043 202.176 curveto
164.406 196.306 164.839 186.274 173.302 179.083 curveto
178.153 184.792 lineto
171.846 190.155 171.995 198.095 172.589 202.182 curveto
186.21 202.191 197.354 202.199 199.735 202.201 curveto
199.735 178.25 lineto
207.233 178.25 lineto
207.233 205.952 lineto
203.479 209.699 lineto
160.566 209.67 lineto
closepath
fill
grestore
gsave
0.26274511 0.37254903 0.70980394 setrgbcolor
newpath
136.069 165.423 moveto
136.069 172.915 lineto
109.034 172.915 lineto
105.284 172.915 lineto
105.284 158.029 lineto
105.274 157.877 105.265 157.711 105.265 157.504 curveto
105.265 156.111 105.597 153.5 107.699 151.057 curveto
110.589 147.688 115.634 145.986 122.678 145.986 curveto
136.069 145.986 lineto
136.069 153.48 lineto
122.678 153.48 lineto
116.603 153.48 114.31 154.955 113.48 155.828 curveto
113.417 155.9 113.384 155.963 113.33 156.033 curveto
136.069 156.033 lineto
136.069 163.526 lineto
112.781 163.526 lineto
112.781 165.423 lineto
136.069 165.423 lineto
closepath
fill
grestore
gsave
0.26274511 0.37254903 0.70980394 setrgbcolor
newpath
109.347 142.225 moveto
105.597 138.48 lineto
105.597 99.721 lineto
113.09 99.721 lineto
113.09 134.73 lineto
198.371 134.73 lineto
198.371 100.039 lineto
205.864 100.039 lineto
205.864 138.48 lineto
202.115 142.225 lineto
109.347 142.225 lineto
closepath
fill
grestore
gsave
0.26274511 0.37254903 0.70980394 setrgbcolor
newpath
188.445 122.402 moveto
188.445 122.402 188.368 113.377 188.324 108.793 curveto
160.21 108.793 lineto
160.21 112.094 lineto
180.9 112.094 lineto
184.648 115.842 lineto
184.648 127.617 lineto
180.9 131.367 lineto
130.793 131.367 lineto
127.045 127.617 lineto
127.045 115.842 lineto
130.793 112.094 lineto
152.716 112.094 lineto
152.716 108.793 lineto
123.757 108.793 lineto
123.757 125.953 lineto
116.265 125.953 lineto
116.265 105.049 lineto
120.01 101.301 lineto
152.716 101.301 lineto
152.716 97.977 lineto
121.696 97.977 lineto
121.696 90.486 lineto
156.466 90.486 lineto
160.21 94.23 lineto
160.21 101.301 lineto
192.034 101.301 lineto
195.784 105.012 lineto
195.978 126.078 lineto
188.479 126.148 lineto
188.445 122.402 lineto
134.537 123.871 moveto
177.157 123.871 lineto
177.157 119.586 lineto
134.537 119.586 lineto
134.537 123.871 lineto
closepath
fill
grestore
gsave
0.26274511 0.37254903 0.70980394 setrgbcolor
newpath
139.92 146.002 moveto
147.412 146.002 lineto
147.412 147.529 150.732 149.838 155.733 149.838 curveto
160.73 149.838 164.05 147.529 164.05 146.002 curveto
171.543 146.002 lineto
171.543 148.945 170.04 151.586 167.553 153.582 curveto
170.04 155.574 171.543 158.215 171.543 161.161 curveto
171.543 164.101 170.04 166.741 167.553 168.736 curveto
170.04 170.725 171.543 173.366 171.543 176.311 curveto
164.05 176.311 lineto
164.05 174.783 160.73 172.48 155.733 172.48 curveto
150.732 172.48 147.412 174.783 147.412 176.311 curveto
139.92 176.311 lineto
139.92 173.366 141.422 170.725 143.909 168.736 curveto
141.422 166.741 139.92 164.101 139.92 161.161 curveto
139.92 158.215 141.422 155.574 143.909 153.582 curveto
141.422 151.586 139.92 148.945 139.92 146.002 curveto
155.733 164.99 moveto
160.73 164.99 164.05 162.681 164.05 161.161 curveto
164.05 159.633 160.73 157.33 155.733 157.33 curveto
150.732 157.33 147.412 159.633 147.412 161.161 curveto
147.412 162.681 150.732 164.99 155.733 164.99 curveto
fill
grestore
gsave
0.26274511 0.37254903 0.70980394 setrgbcolor
newpath
206.177 172.915 moveto
202.43 172.915 lineto
175.391 172.915 lineto
175.391 165.423 lineto
198.685 165.423 lineto
198.685 163.526 lineto
175.391 163.526 lineto
175.391 156.033 lineto
198.136 156.033 lineto
198.077 155.963 198.049 155.9 197.981 155.828 curveto
197.153 154.955 194.858 153.48 188.782 153.48 curveto
175.391 153.48 lineto
175.391 145.986 lineto
188.782 145.986 lineto
195.832 145.986 200.872 147.688 203.764 151.057 curveto
205.868 153.5 206.197 156.111 206.197 157.504 curveto
206.197 157.711 206.188 157.877 206.177 158.029 curveto
206.177 172.915 lineto
closepath
fill
grestore
gsave
0.26274511 0.37254903 0.70980394 setrgbcolor
newpath
155.74 297.775 moveto
77.584 297.775 14 234.202 14 156.051 curveto
14 77.896 77.584 14.311 155.74 14.311 curveto
233.887 14.311 297.465 77.896 297.465 156.051 curveto
297.465 234.202 233.887 297.775 155.74 297.775 curveto
155.74 20.541 moveto
96.665 20.541 46.312 58.545 27.811 111.381 curveto
27.811 111.381 49.863 110.289 59.258 95.609 curveto
68.652 80.932 75.13 62.074 104.465 43.979 curveto
133.799 25.881 169.381 24.191 181.6 23.027 curveto
173.226 21.402 164.583 20.541 155.74 20.541 curveto
195.058 26.365 moveto
195.058 26.365 140.846 28.166 113.226 50.072 curveto
99.164 61.229 93.054 71.291 88.759 80.121 curveto
137.519 78.133 118.468 35.1 204.108 29.471 curveto
201.14 28.334 198.123 27.297 195.058 26.365 curveto
216.849 35.125 moveto
179.612 38.781 164.388 50.133 153.278 61.111 curveto
186.522 64.916 189.408 44.672 222.632 38.24 curveto
220.733 37.156 218.804 36.119 216.849 35.125 curveto
236.589 47.371 moveto
206.305 55.199 203.358 74.93 166.286 68.223 curveto
149.311 65.152 lineto
139.04 75.814 130.621 85.131 106.632 85.246 curveto
86.313 85.338 lineto
83.411 91.674 80.838 97.277 75.891 102.076 curveto
63.128 114.459 27.874 116.313 26.218 116.217 curveto
25.15 119.682 24.212 123.205 23.421 126.781 curveto
42.73 137.193 74.398 157.294 100.94 180.026 curveto
100.94 186.138 lineto
77.274 167.017 45.157 150.779 21.174 140.084 curveto
20.557 145.324 20.229 150.648 20.229 156.051 curveto
20.229 230.768 81.021 291.546 155.74 291.546 curveto
218.354 291.546 271.175 248.859 286.645 191.051 curveto
279.398 196.237 272.209 202.437 265.321 209.099 curveto
257.878 209.099 lineto
230.993 236.453 209.359 269.781 209.359 269.781 curveto
209.357 269.781 lineto
199.131 269.781 lineto
196.914 264.35 lineto
193.859 269.781 lineto
181.547 269.781 lineto
178.495 264.351 lineto
176.277 269.781 lineto
166.051 269.781 lineto
166.051 269.781 152.055 241.758 127.671 212.929 curveto
133.237 212.929 lineto
154.876 239.699 167.734 266.378 167.734 266.378 curveto
174.177 266.378 lineto
176.321 260.482 lineto
173.592 255.628 lineto
177.135 255.628 lineto
182.59 266.377 lineto
191.994 266.377 lineto
196.626 255.628 lineto
201.816 255.628 lineto
199.087 260.482 lineto
201.229 266.378 lineto
207.676 266.378 lineto
207.676 266.378 223.016 236.652 250.353 204.162 curveto
257.055 204.162 lineto
266.824 192.969 277.979 181.615 290.386 171.174 curveto
290.94 166.207 291.236 161.163 291.236 156.051 curveto
291.236 111.607 269.734 72.098 236.589 47.371 curveto
fill
grestore
grestore
grestore
showpage
%%EOF
